{
  "expertise": {
    "timeunit": "months",
    "novice": {
      "min": "6",
      "max": "18"
    },
    "beginner": {
      "min": "12",
      "max": "30"
    },
    "intermediate": {
      "min": "24",
      "max": "60"
    },
    "expert": {
      "min": "54"
    }
  }
}