{
  "candidates": [
    {
      "name": "Ankur Vatsa",
      "skills": [
        {
          "type": "Technology",
          "name": "C++",
          "current": "Yes",
          "expertise": "Expert"
        },
        {
          "type": "Technology",
          "name": "Python",
          "current": "Yes",
          "expertise": "Expert"
        },
        {
          "type": "Technology",
          "name": "Javascript",
          "current": "No",
          "expertise": "Intermediate"
        },
        {
          "type": "Domain",
          "subdomain": "Investment Banking",
          "name": "Interest Rate Derivatives",
          "current": "No",
          "expertise": "Expert"
        },
        {
          "type": "Domain",
          "subdomain": "Telecom",
          "name": "VoIP",
          "current": "No",
          "expertise": "Intermediate"
        }
      ],
      "experience": {
        "unit": "Years",
        "relevant": "18",
        "other": "1"
      },
      "location": {
        "country": "India",
        "state": "Haryana",
        "city": "Gurugram",
        "pin": "122010"
      }
    },
    {
      "name": "John Doe",
      "skills": [
        {
          "type": "Technology",
          "name": "C++",
          "current": "Yes",
          "expertise": "Expert"
        },
        {
          "type": "Technology",
          "name": "Python",
          "current": "Yes",
          "expertise": "Expert"
        },
        {
          "type": "Technology",
          "name": "Javascript",
          "current": "No",
          "expertise": "Intermediate"
        },
        {
          "type": "Domain",
          "subdomain": "Investment Banking",
          "name": "Interest Rate Derivatives",
          "current": "No",
          "expertise": "Expert"
        },
        {
          "type": "Domain",
          "subdomain": "Telecom",
          "name": "VoIP",
          "current": "No",
          "expertise": "Intermediate"
        }
      ],
      "experience": {
        "unit": "Years",
        "relevant": "18",
        "other": "1"
      },
      "location": {
        "country": "India",
        "state": "Haryana",
        "city": "Gurugram",
        "pin": "122010"
      }
    }
  ]
}