{
  "divisions": [
    {
      "name": "Information Technology",
      "bunits": [
        {
          "name": "Global Markets IT",
          "code": "GM1234",
          "sbunits": [
            {
              "name": "Research",
              "code": "GM0945",
              "projects": [
                {
                  "name": "XYZ",
                  "code": "PRJ987",
                  "jobs": [
                    {
                      "titles": {
                        "title": [
                          {
                            "name": "Programmer",
                            "type": "Functional"
                          },
                          {
                            "name": "Vice President",
                            "type": "Corporate"
                          }
                        ]
                      },
                      "experience": {
                        "unit": "Years",
                        "min": "15",
                        "max": "20"
                      },
                      "location": {
                        "country": "India",
                        "state": "Maharashtra",
                        "city": "Mumbai",
                        "pin": "400076"
                      },
                      "skills": [
                        {
                          "mandatory": "Yes",
                          "type": "Technology",
                          "name": "C++",
                          "current": "Yes",
                          "expertise": "Expert"
                        },
                        {
                          "mandatory": "No",
                          "type": "Technology",
                          "name": "Javascript",
                          "current": "No",
                          "expertise": "Beginner"
                        },
                        {
                          "mandatory": "Yes",
                          "type": "Technology",
                          "name": "Java",
                          "current": "Yes",
                          "expertise": "Intermediate"
                        },
                        {
                          "mandatory": "Yes",
                          "type": "Domain",
                          "name": "Interest Rate Derivatives",
                          "current": "Yes",
                          "expertise": "Intermediate"
                        },
                        {
                          "mandatory": "Yes",
                          "type": "Softskill",
                          "name": "Stakeholder Management",
                          "current": "Yes",
                          "expertise": "Intermediate"
                        }
                      ]
                    },
                    {
                      "titles": {
                        "title": [
                          {
                            "name": "Programmer",
                            "type": "Functional"
                          },
                          {
                            "name": "Vice President",
                            "type": "Corporate"
                          }
                        ]
                      },
                      "experience": {
                        "unit": "Years",
                        "min": "15",
                        "max": "20"
                      },
                      "location": {
                        "country": "India",
                        "state": "Maharashtra",
                        "city": "Mumbai",
                        "pin": "400076"
                      },
                      "skills": [
                        {
                          "mandatory": "Yes",
                          "type": "Technology",
                          "name": "C++",
                          "current": "Yes",
                          "expertise": "Expert"
                        },
                        {
                          "mandatory": "No",
                          "type": "Technology",
                          "name": "Javascript",
                          "current": "No",
                          "expertise": "Beginner"
                        },
                        {
                          "mandatory": "Yes",
                          "type": "Technology",
                          "name": "Java",
                          "current": "Yes",
                          "expertise": "Intermediate"
                        },
                        {
                          "mandatory": "Yes",
                          "type": "Domain",
                          "name": "Interest Rate Derivatives",
                          "current": "Yes",
                          "expertise": "Intermediate"
                        },
                        {
                          "mandatory": "Yes",
                          "type": "Softskill",
                          "name": "Stakeholder Management",
                          "current": "Yes",
                          "expertise": "Intermediate"
                        }
                      ]
                    }
                  ]
                },
                {
                  "name": "XYZ",
                  "code": "PRJ987",
                  "jobs": [
                    {
                      "titles": {
                        "title": [
                          {
                            "name": "Programmer",
                            "type": "Functional"
                          },
                          {
                            "name": "Vice President",
                            "type": "Corporate"
                          }
                        ]
                      },
                      "experience": {
                        "unit": "Years",
                        "min": "15",
                        "max": "20"
                      },
                      "location": {
                        "country": "India",
                        "state": "Maharashtra",
                        "city": "Mumbai",
                        "pin": "400076"
                      },
                      "skills": [
                        {
                          "mandatory": "Yes",
                          "type": "Technology",
                          "name": "C++",
                          "current": "Yes",
                          "expertise": "Expert"
                        },
                        {
                          "mandatory": "No",
                          "type": "Technology",
                          "name": "Javascript",
                          "current": "No",
                          "expertise": "Beginner"
                        },
                        {
                          "mandatory": "Yes",
                          "type": "Technology",
                          "name": "Java",
                          "current": "Yes",
                          "expertise": "Intermediate"
                        },
                        {
                          "mandatory": "Yes",
                          "type": "Domain",
                          "name": "Interest Rate Derivatives",
                          "current": "Yes",
                          "expertise": "Intermediate"
                        },
                        {
                          "mandatory": "Yes",
                          "type": "Softskill",
                          "name": "Stakeholder Management",
                          "current": "Yes",
                          "expertise": "Intermediate"
                        }
                      ]
                    },
                    {
                      "titles": {
                        "title": [
                          {
                            "name": "Programmer",
                            "type": "Functional"
                          },
                          {
                            "name": "Vice President",
                            "type": "Corporate"
                          }
                        ]
                      },
                      "experience": {
                        "unit": "Years",
                        "min": "15",
                        "max": "20"
                      },
                      "location": {
                        "country": "India",
                        "state": "Maharashtra",
                        "city": "Mumbai",
                        "pin": "400076"
                      },
                      "skills": [
                        {
                          "mandatory": "Yes",
                          "type": "Technology",
                          "name": "C++",
                          "current": "Yes",
                          "expertise": "Expert"
                        },
                        {
                          "mandatory": "No",
                          "type": "Technology",
                          "name": "Javascript",
                          "current": "No",
                          "expertise": "Beginner"
                        },
                        {
                          "mandatory": "Yes",
                          "type": "Technology",
                          "name": "Java",
                          "current": "Yes",
                          "expertise": "Intermediate"
                        },
                        {
                          "mandatory": "Yes",
                          "type": "Domain",
                          "name": "Interest Rate Derivatives",
                          "current": "Yes",
                          "expertise": "Intermediate"
                        },
                        {
                          "mandatory": "Yes",
                          "type": "Softskill",
                          "name": "Stakeholder Management",
                          "current": "Yes",
                          "expertise": "Intermediate"
                        }
                      ]
                    }
                  ]
                }
              ]
            },
            {
              "name": "Research",
              "code": "GM0945",
              "projects": {
                "project": [
                  {
                    "name": "XYZ",
                    "code": "PRJ987",
                    "jobs": {
                      "job": [
                        {
                          "titles": {
                            "title": [
                              {
                                "name": "Programmer",
                                "type": "Functional"
                              },
                              {
                                "name": "Vice President",
                                "type": "Corporate"
                              }
                            ]
                          },
                          "experience": {
                            "unit": "Years",
                            "min": "15",
                            "max": "20"
                          },
                          "location": {
                            "country": "India",
                            "state": "Maharashtra",
                            "city": "Mumbai",
                            "pin": "400076"
                          },
                          "skills": {
                            "skill": [
                              {
                                "mandatory": "Yes",
                                "type": "Technology",
                                "name": "C++",
                                "current": "Yes",
                                "expertise": "Expert"
                              },
                              {
                                "mandatory": "No",
                                "type": "Technology",
                                "name": "Javascript",
                                "current": "No",
                                "expertise": "Beginner"
                              },
                              {
                                "mandatory": "Yes",
                                "type": "Technology",
                                "name": "Java",
                                "current": "Yes",
                                "expertise": "Intermediate"
                              },
                              {
                                "mandatory": "Yes",
                                "type": "Domain",
                                "name": "Interest Rate Derivatives",
                                "current": "Yes",
                                "expertise": "Intermediate"
                              },
                              {
                                "mandatory": "Yes",
                                "type": "Softskill",
                                "name": "Stakeholder Management",
                                "current": "Yes",
                                "expertise": "Intermediate"
                              }
                            ]
                          }
                        },
                        {
                          "titles": {
                            "title": [
                              {
                                "name": "Programmer",
                                "type": "Functional"
                              },
                              {
                                "name": "Vice President",
                                "type": "Corporate"
                              }
                            ]
                          },
                          "experience": {
                            "unit": "Years",
                            "min": "15",
                            "max": "20"
                          },
                          "location": {
                            "country": "India",
                            "state": "Maharashtra",
                            "city": "Mumbai",
                            "pin": "400076"
                          },
                          "skills": {
                            "skill": [
                              {
                                "mandatory": "Yes",
                                "type": "Technology",
                                "name": "C++",
                                "current": "Yes",
                                "expertise": "Expert"
                              },
                              {
                                "mandatory": "No",
                                "type": "Technology",
                                "name": "Javascript",
                                "current": "No",
                                "expertise": "Beginner"
                              },
                              {
                                "mandatory": "Yes",
                                "type": "Technology",
                                "name": "Java",
                                "current": "Yes",
                                "expertise": "Intermediate"
                              },
                              {
                                "mandatory": "Yes",
                                "type": "Domain",
                                "name": "Interest Rate Derivatives",
                                "current": "Yes",
                                "expertise": "Intermediate"
                              },
                              {
                                "mandatory": "Yes",
                                "type": "Softskill",
                                "name": "Stakeholder Management",
                                "current": "Yes",
                                "expertise": "Intermediate"
                              }
                            ]
                          }
                        }
                      ]
                    }
                  },
                  {
                    "name": "XYZ",
                    "code": "PRJ987",
                    "jobs": {
                      "job": [
                        {
                          "titles": {
                            "title": [
                              {
                                "name": "Programmer",
                                "type": "Functional"
                              },
                              {
                                "name": "Vice President",
                                "type": "Corporate"
                              }
                            ]
                          },
                          "experience": {
                            "unit": "Years",
                            "min": "15",
                            "max": "20"
                          },
                          "location": {
                            "country": "India",
                            "state": "Maharashtra",
                            "city": "Mumbai",
                            "pin": "400076"
                          },
                          "skills": {
                            "skill": [
                              {
                                "mandatory": "Yes",
                                "type": "Technology",
                                "name": "C++",
                                "current": "Yes",
                                "expertise": "Expert"
                              },
                              {
                                "mandatory": "No",
                                "type": "Technology",
                                "name": "Javascript",
                                "current": "No",
                                "expertise": "Beginner"
                              },
                              {
                                "mandatory": "Yes",
                                "type": "Technology",
                                "name": "Java",
                                "current": "Yes",
                                "expertise": "Intermediate"
                              },
                              {
                                "mandatory": "Yes",
                                "type": "Domain",
                                "name": "Interest Rate Derivatives",
                                "current": "Yes",
                                "expertise": "Intermediate"
                              },
                              {
                                "mandatory": "Yes",
                                "type": "Softskill",
                                "name": "Stakeholder Management",
                                "current": "Yes",
                                "expertise": "Intermediate"
                              }
                            ]
                          }
                        },
                        {
                          "titles": {
                            "title": [
                              {
                                "name": "Programmer",
                                "type": "Functional"
                              },
                              {
                                "name": "Vice President",
                                "type": "Corporate"
                              }
                            ]
                          },
                          "experience": {
                            "unit": "Years",
                            "min": "15",
                            "max": "20"
                          },
                          "location": {
                            "country": "India",
                            "state": "Maharashtra",
                            "city": "Mumbai",
                            "pin": "400076"
                          },
                          "skills": {
                            "skill": [
                              {
                                "mandatory": "Yes",
                                "type": "Technology",
                                "name": "C++",
                                "current": "Yes",
                                "expertise": "Expert"
                              },
                              {
                                "mandatory": "No",
                                "type": "Technology",
                                "name": "Javascript",
                                "current": "No",
                                "expertise": "Beginner"
                              },
                              {
                                "mandatory": "Yes",
                                "type": "Technology",
                                "name": "Java",
                                "current": "Yes",
                                "expertise": "Intermediate"
                              },
                              {
                                "mandatory": "Yes",
                                "type": "Domain",
                                "name": "Interest Rate Derivatives",
                                "current": "Yes",
                                "expertise": "Intermediate"
                              },
                              {
                                "mandatory": "Yes",
                                "type": "Softskill",
                                "name": "Stakeholder Management",
                                "current": "Yes",
                                "expertise": "Intermediate"
                              }
                            ]
                          }
                        }
                      ]
                    }
                  }
                ]
              }
            }
          ]
        },
        {
          "name": "Global Markets IT",
          "code": "GM1234",
          "sbunits": [
            {
              "name": "Research",
              "code": "GM0945",
              "projects": [
                {
                  "name": "XYZ",
                  "code": "PRJ987",
                  "jobs": [
                    {
                      "titles": {
                        "title": [
                          {
                            "name": "Programmer",
                            "type": "Functional"
                          },
                          {
                            "name": "Vice President",
                            "type": "Corporate"
                          }
                        ]
                      },
                      "experience": {
                        "unit": "Years",
                        "min": "15",
                        "max": "20"
                      },
                      "location": {
                        "country": "India",
                        "state": "Maharashtra",
                        "city": "Mumbai",
                        "pin": "400076"
                      },
                      "skills": [
                        {
                          "mandatory": "Yes",
                          "type": "Technology",
                          "name": "C++",
                          "current": "Yes",
                          "expertise": "Expert"
                        },
                        {
                          "mandatory": "No",
                          "type": "Technology",
                          "name": "Javascript",
                          "current": "No",
                          "expertise": "Beginner"
                        },
                        {
                          "mandatory": "Yes",
                          "type": "Technology",
                          "name": "Java",
                          "current": "Yes",
                          "expertise": "Intermediate"
                        },
                        {
                          "mandatory": "Yes",
                          "type": "Domain",
                          "name": "Interest Rate Derivatives",
                          "current": "Yes",
                          "expertise": "Intermediate"
                        },
                        {
                          "mandatory": "Yes",
                          "type": "Softskill",
                          "name": "Stakeholder Management",
                          "current": "Yes",
                          "expertise": "Intermediate"
                        }
                      ]
                    },
                    {
                      "titles": {
                        "title": [
                          {
                            "name": "Programmer",
                            "type": "Functional"
                          },
                          {
                            "name": "Vice President",
                            "type": "Corporate"
                          }
                        ]
                      },
                      "experience": {
                        "unit": "Years",
                        "min": "15",
                        "max": "20"
                      },
                      "location": {
                        "country": "India",
                        "state": "Maharashtra",
                        "city": "Mumbai",
                        "pin": "400076"
                      },
                      "skills": [
                        {
                          "mandatory": "Yes",
                          "type": "Technology",
                          "name": "C++",
                          "current": "Yes",
                          "expertise": "Expert"
                        },
                        {
                          "mandatory": "No",
                          "type": "Technology",
                          "name": "Javascript",
                          "current": "No",
                          "expertise": "Beginner"
                        },
                        {
                          "mandatory": "Yes",
                          "type": "Technology",
                          "name": "Java",
                          "current": "Yes",
                          "expertise": "Intermediate"
                        },
                        {
                          "mandatory": "Yes",
                          "type": "Domain",
                          "name": "Interest Rate Derivatives",
                          "current": "Yes",
                          "expertise": "Intermediate"
                        },
                        {
                          "mandatory": "Yes",
                          "type": "Softskill",
                          "name": "Stakeholder Management",
                          "current": "Yes",
                          "expertise": "Intermediate"
                        }
                      ]
                    }
                  ]
                },
                {
                  "name": "XYZ",
                  "code": "PRJ987",
                  "jobs": [
                    {
                      "titles": {
                        "title": [
                          {
                            "name": "Programmer",
                            "type": "Functional"
                          },
                          {
                            "name": "Vice President",
                            "type": "Corporate"
                          }
                        ]
                      },
                      "experience": {
                        "unit": "Years",
                        "min": "15",
                        "max": "20"
                      },
                      "location": {
                        "country": "India",
                        "state": "Maharashtra",
                        "city": "Mumbai",
                        "pin": "400076"
                      },
                      "skills": [
                        {
                          "mandatory": "Yes",
                          "type": "Technology",
                          "name": "C++",
                          "current": "Yes",
                          "expertise": "Expert"
                        },
                        {
                          "mandatory": "No",
                          "type": "Technology",
                          "name": "Javascript",
                          "current": "No",
                          "expertise": "Beginner"
                        },
                        {
                          "mandatory": "Yes",
                          "type": "Technology",
                          "name": "Java",
                          "current": "Yes",
                          "expertise": "Intermediate"
                        },
                        {
                          "mandatory": "Yes",
                          "type": "Domain",
                          "name": "Interest Rate Derivatives",
                          "current": "Yes",
                          "expertise": "Intermediate"
                        },
                        {
                          "mandatory": "Yes",
                          "type": "Softskill",
                          "name": "Stakeholder Management",
                          "current": "Yes",
                          "expertise": "Intermediate"
                        }
                      ]
                    },
                    {
                      "titles": {
                        "title": [
                          {
                            "name": "Programmer",
                            "type": "Functional"
                          },
                          {
                            "name": "Vice President",
                            "type": "Corporate"
                          }
                        ]
                      },
                      "experience": {
                        "unit": "Years",
                        "min": "15",
                        "max": "20"
                      },
                      "location": {
                        "country": "India",
                        "state": "Maharashtra",
                        "city": "Mumbai",
                        "pin": "400076"
                      },
                      "skills": [
                        {
                          "mandatory": "Yes",
                          "type": "Technology",
                          "name": "C++",
                          "current": "Yes",
                          "expertise": "Expert"
                        },
                        {
                          "mandatory": "No",
                          "type": "Technology",
                          "name": "Javascript",
                          "current": "No",
                          "expertise": "Beginner"
                        },
                        {
                          "mandatory": "Yes",
                          "type": "Technology",
                          "name": "Java",
                          "current": "Yes",
                          "expertise": "Intermediate"
                        },
                        {
                          "mandatory": "Yes",
                          "type": "Domain",
                          "name": "Interest Rate Derivatives",
                          "current": "Yes",
                          "expertise": "Intermediate"
                        },
                        {
                          "mandatory": "Yes",
                          "type": "Softskill",
                          "name": "Stakeholder Management",
                          "current": "Yes",
                          "expertise": "Intermediate"
                        }
                      ]
                    }
                  ]
                }
              ]
            },
            {
              "name": "Research",
              "code": "GM0945",
              "projects": {
                "project": [
                  {
                    "name": "XYZ",
                    "code": "PRJ987",
                    "jobs": {
                      "job": [
                        {
                          "titles": {
                            "title": [
                              {
                                "name": "Programmer",
                                "type": "Functional"
                              },
                              {
                                "name": "Vice President",
                                "type": "Corporate"
                              }
                            ]
                          },
                          "experience": {
                            "unit": "Years",
                            "min": "15",
                            "max": "20"
                          },
                          "location": {
                            "country": "India",
                            "state": "Maharashtra",
                            "city": "Mumbai",
                            "pin": "400076"
                          },
                          "skills": {
                            "skill": [
                              {
                                "mandatory": "Yes",
                                "type": "Technology",
                                "name": "C++",
                                "current": "Yes",
                                "expertise": "Expert"
                              },
                              {
                                "mandatory": "No",
                                "type": "Technology",
                                "name": "Javascript",
                                "current": "No",
                                "expertise": "Beginner"
                              },
                              {
                                "mandatory": "Yes",
                                "type": "Technology",
                                "name": "Java",
                                "current": "Yes",
                                "expertise": "Intermediate"
                              },
                              {
                                "mandatory": "Yes",
                                "type": "Domain",
                                "name": "Interest Rate Derivatives",
                                "current": "Yes",
                                "expertise": "Intermediate"
                              },
                              {
                                "mandatory": "Yes",
                                "type": "Softskill",
                                "name": "Stakeholder Management",
                                "current": "Yes",
                                "expertise": "Intermediate"
                              }
                            ]
                          }
                        },
                        {
                          "titles": {
                            "title": [
                              {
                                "name": "Programmer",
                                "type": "Functional"
                              },
                              {
                                "name": "Vice President",
                                "type": "Corporate"
                              }
                            ]
                          },
                          "experience": {
                            "unit": "Years",
                            "min": "15",
                            "max": "20"
                          },
                          "location": {
                            "country": "India",
                            "state": "Maharashtra",
                            "city": "Mumbai",
                            "pin": "400076"
                          },
                          "skills": {
                            "skill": [
                              {
                                "mandatory": "Yes",
                                "type": "Technology",
                                "name": "C++",
                                "current": "Yes",
                                "expertise": "Expert"
                              },
                              {
                                "mandatory": "No",
                                "type": "Technology",
                                "name": "Javascript",
                                "current": "No",
                                "expertise": "Beginner"
                              },
                              {
                                "mandatory": "Yes",
                                "type": "Technology",
                                "name": "Java",
                                "current": "Yes",
                                "expertise": "Intermediate"
                              },
                              {
                                "mandatory": "Yes",
                                "type": "Domain",
                                "name": "Interest Rate Derivatives",
                                "current": "Yes",
                                "expertise": "Intermediate"
                              },
                              {
                                "mandatory": "Yes",
                                "type": "Softskill",
                                "name": "Stakeholder Management",
                                "current": "Yes",
                                "expertise": "Intermediate"
                              }
                            ]
                          }
                        }
                      ]
                    }
                  },
                  {
                    "name": "XYZ",
                    "code": "PRJ987",
                    "jobs": {
                      "job": [
                        {
                          "titles": {
                            "title": [
                              {
                                "name": "Programmer",
                                "type": "Functional"
                              },
                              {
                                "name": "Vice President",
                                "type": "Corporate"
                              }
                            ]
                          },
                          "experience": {
                            "unit": "Years",
                            "min": "15",
                            "max": "20"
                          },
                          "location": {
                            "country": "India",
                            "state": "Maharashtra",
                            "city": "Mumbai",
                            "pin": "400076"
                          },
                          "skills": {
                            "skill": [
                              {
                                "mandatory": "Yes",
                                "type": "Technology",
                                "name": "C++",
                                "current": "Yes",
                                "expertise": "Expert"
                              },
                              {
                                "mandatory": "No",
                                "type": "Technology",
                                "name": "Javascript",
                                "current": "No",
                                "expertise": "Beginner"
                              },
                              {
                                "mandatory": "Yes",
                                "type": "Technology",
                                "name": "Java",
                                "current": "Yes",
                                "expertise": "Intermediate"
                              },
                              {
                                "mandatory": "Yes",
                                "type": "Domain",
                                "name": "Interest Rate Derivatives",
                                "current": "Yes",
                                "expertise": "Intermediate"
                              },
                              {
                                "mandatory": "Yes",
                                "type": "Softskill",
                                "name": "Stakeholder Management",
                                "current": "Yes",
                                "expertise": "Intermediate"
                              }
                            ]
                          }
                        },
                        {
                          "titles": {
                            "title": [
                              {
                                "name": "Programmer",
                                "type": "Functional"
                              },
                              {
                                "name": "Vice President",
                                "type": "Corporate"
                              }
                            ]
                          },
                          "experience": {
                            "unit": "Years",
                            "min": "15",
                            "max": "20"
                          },
                          "location": {
                            "country": "India",
                            "state": "Maharashtra",
                            "city": "Mumbai",
                            "pin": "400076"
                          },
                          "skills": {
                            "skill": [
                              {
                                "mandatory": "Yes",
                                "type": "Technology",
                                "name": "C++",
                                "current": "Yes",
                                "expertise": "Expert"
                              },
                              {
                                "mandatory": "No",
                                "type": "Technology",
                                "name": "Javascript",
                                "current": "No",
                                "expertise": "Beginner"
                              },
                              {
                                "mandatory": "Yes",
                                "type": "Technology",
                                "name": "Java",
                                "current": "Yes",
                                "expertise": "Intermediate"
                              },
                              {
                                "mandatory": "Yes",
                                "type": "Domain",
                                "name": "Interest Rate Derivatives",
                                "current": "Yes",
                                "expertise": "Intermediate"
                              },
                              {
                                "mandatory": "Yes",
                                "type": "Softskill",
                                "name": "Stakeholder Management",
                                "current": "Yes",
                                "expertise": "Intermediate"
                              }
                            ]
                          }
                        }
                      ]
                    }
                  }
                ]
              }
            }
          ]
        }
      ]
    },
    {
      "name": "Risk Management",
      "bunits": [
        {
          "name": "Credit Risk Management",
          "code": "RMC1234",
          "sbunits": [
            {
              "name": "Research",
              "code": "GM0945",
              "projects": [
                {
                  "name": "XYZ",
                  "code": "PRJ987",
                  "jobs": [
                    {
                      "titles": {
                        "title": [
                          {
                            "name": "Programmer",
                            "type": "Functional"
                          },
                          {
                            "name": "Vice President",
                            "type": "Corporate"
                          }
                        ]
                      },
                      "experience": {
                        "unit": "Years",
                        "min": "15",
                        "max": "20"
                      },
                      "location": {
                        "country": "India",
                        "state": "Maharashtra",
                        "city": "Mumbai",
                        "pin": "400076"
                      },
                      "skills": [
                        {
                          "mandatory": "Yes",
                          "type": "Technology",
                          "name": "C++",
                          "current": "Yes",
                          "expertise": "Expert"
                        },
                        {
                          "mandatory": "No",
                          "type": "Technology",
                          "name": "Javascript",
                          "current": "No",
                          "expertise": "Beginner"
                        },
                        {
                          "mandatory": "Yes",
                          "type": "Technology",
                          "name": "Java",
                          "current": "Yes",
                          "expertise": "Intermediate"
                        },
                        {
                          "mandatory": "Yes",
                          "type": "Domain",
                          "name": "Interest Rate Derivatives",
                          "current": "Yes",
                          "expertise": "Intermediate"
                        },
                        {
                          "mandatory": "Yes",
                          "type": "Softskill",
                          "name": "Stakeholder Management",
                          "current": "Yes",
                          "expertise": "Intermediate"
                        }
                      ]
                    },
                    {
                      "titles": {
                        "title": [
                          {
                            "name": "Programmer",
                            "type": "Functional"
                          },
                          {
                            "name": "Vice President",
                            "type": "Corporate"
                          }
                        ]
                      },
                      "experience": {
                        "unit": "Years",
                        "min": "15",
                        "max": "20"
                      },
                      "location": {
                        "country": "India",
                        "state": "Maharashtra",
                        "city": "Mumbai",
                        "pin": "400076"
                      },
                      "skills": [
                        {
                          "mandatory": "Yes",
                          "type": "Technology",
                          "name": "C++",
                          "current": "Yes",
                          "expertise": "Expert"
                        },
                        {
                          "mandatory": "No",
                          "type": "Technology",
                          "name": "Javascript",
                          "current": "No",
                          "expertise": "Beginner"
                        },
                        {
                          "mandatory": "Yes",
                          "type": "Technology",
                          "name": "Java",
                          "current": "Yes",
                          "expertise": "Intermediate"
                        },
                        {
                          "mandatory": "Yes",
                          "type": "Domain",
                          "name": "Interest Rate Derivatives",
                          "current": "Yes",
                          "expertise": "Intermediate"
                        },
                        {
                          "mandatory": "Yes",
                          "type": "Softskill",
                          "name": "Stakeholder Management",
                          "current": "Yes",
                          "expertise": "Intermediate"
                        }
                      ]
                    }
                  ]
                },
                {
                  "name": "XYZ",
                  "code": "PRJ987",
                  "jobs": [
                    {
                      "titles": {
                        "title": [
                          {
                            "name": "Programmer",
                            "type": "Functional"
                          },
                          {
                            "name": "Vice President",
                            "type": "Corporate"
                          }
                        ]
                      },
                      "experience": {
                        "unit": "Years",
                        "min": "15",
                        "max": "20"
                      },
                      "location": {
                        "country": "India",
                        "state": "Maharashtra",
                        "city": "Mumbai",
                        "pin": "400076"
                      },
                      "skills": [
                        {
                          "mandatory": "Yes",
                          "type": "Technology",
                          "name": "C++",
                          "current": "Yes",
                          "expertise": "Expert"
                        },
                        {
                          "mandatory": "No",
                          "type": "Technology",
                          "name": "Javascript",
                          "current": "No",
                          "expertise": "Beginner"
                        },
                        {
                          "mandatory": "Yes",
                          "type": "Technology",
                          "name": "Java",
                          "current": "Yes",
                          "expertise": "Intermediate"
                        },
                        {
                          "mandatory": "Yes",
                          "type": "Domain",
                          "name": "Interest Rate Derivatives",
                          "current": "Yes",
                          "expertise": "Intermediate"
                        },
                        {
                          "mandatory": "Yes",
                          "type": "Softskill",
                          "name": "Stakeholder Management",
                          "current": "Yes",
                          "expertise": "Intermediate"
                        }
                      ]
                    },
                    {
                      "titles": {
                        "title": [
                          {
                            "name": "Programmer",
                            "type": "Functional"
                          },
                          {
                            "name": "Vice President",
                            "type": "Corporate"
                          }
                        ]
                      },
                      "experience": {
                        "unit": "Years",
                        "min": "15",
                        "max": "20"
                      },
                      "location": {
                        "country": "India",
                        "state": "Maharashtra",
                        "city": "Mumbai",
                        "pin": "400076"
                      },
                      "skills": [
                        {
                          "mandatory": "Yes",
                          "type": "Technology",
                          "name": "C++",
                          "current": "Yes",
                          "expertise": "Expert"
                        },
                        {
                          "mandatory": "No",
                          "type": "Technology",
                          "name": "Javascript",
                          "current": "No",
                          "expertise": "Beginner"
                        },
                        {
                          "mandatory": "Yes",
                          "type": "Technology",
                          "name": "Java",
                          "current": "Yes",
                          "expertise": "Intermediate"
                        },
                        {
                          "mandatory": "Yes",
                          "type": "Domain",
                          "name": "Interest Rate Derivatives",
                          "current": "Yes",
                          "expertise": "Intermediate"
                        },
                        {
                          "mandatory": "Yes",
                          "type": "Softskill",
                          "name": "Stakeholder Management",
                          "current": "Yes",
                          "expertise": "Intermediate"
                        }
                      ]
                    }
                  ]
                }
              ]
            },
            {
              "name": "Research",
              "code": "GM0945",
              "projects": {
                "project": [
                  {
                    "name": "XYZ",
                    "code": "PRJ987",
                    "jobs": {
                      "job": [
                        {
                          "titles": {
                            "title": [
                              {
                                "name": "Programmer",
                                "type": "Functional"
                              },
                              {
                                "name": "Vice President",
                                "type": "Corporate"
                              }
                            ]
                          },
                          "experience": {
                            "unit": "Years",
                            "min": "15",
                            "max": "20"
                          },
                          "location": {
                            "country": "India",
                            "state": "Maharashtra",
                            "city": "Mumbai",
                            "pin": "400076"
                          },
                          "skills": {
                            "skill": [
                              {
                                "mandatory": "Yes",
                                "type": "Technology",
                                "name": "C++",
                                "current": "Yes",
                                "expertise": "Expert"
                              },
                              {
                                "mandatory": "No",
                                "type": "Technology",
                                "name": "Javascript",
                                "current": "No",
                                "expertise": "Beginner"
                              },
                              {
                                "mandatory": "Yes",
                                "type": "Technology",
                                "name": "Java",
                                "current": "Yes",
                                "expertise": "Intermediate"
                              },
                              {
                                "mandatory": "Yes",
                                "type": "Domain",
                                "name": "Interest Rate Derivatives",
                                "current": "Yes",
                                "expertise": "Intermediate"
                              },
                              {
                                "mandatory": "Yes",
                                "type": "Softskill",
                                "name": "Stakeholder Management",
                                "current": "Yes",
                                "expertise": "Intermediate"
                              }
                            ]
                          }
                        },
                        {
                          "titles": {
                            "title": [
                              {
                                "name": "Programmer",
                                "type": "Functional"
                              },
                              {
                                "name": "Vice President",
                                "type": "Corporate"
                              }
                            ]
                          },
                          "experience": {
                            "unit": "Years",
                            "min": "15",
                            "max": "20"
                          },
                          "location": {
                            "country": "India",
                            "state": "Maharashtra",
                            "city": "Mumbai",
                            "pin": "400076"
                          },
                          "skills": {
                            "skill": [
                              {
                                "mandatory": "Yes",
                                "type": "Technology",
                                "name": "C++",
                                "current": "Yes",
                                "expertise": "Expert"
                              },
                              {
                                "mandatory": "No",
                                "type": "Technology",
                                "name": "Javascript",
                                "current": "No",
                                "expertise": "Beginner"
                              },
                              {
                                "mandatory": "Yes",
                                "type": "Technology",
                                "name": "Java",
                                "current": "Yes",
                                "expertise": "Intermediate"
                              },
                              {
                                "mandatory": "Yes",
                                "type": "Domain",
                                "name": "Interest Rate Derivatives",
                                "current": "Yes",
                                "expertise": "Intermediate"
                              },
                              {
                                "mandatory": "Yes",
                                "type": "Softskill",
                                "name": "Stakeholder Management",
                                "current": "Yes",
                                "expertise": "Intermediate"
                              }
                            ]
                          }
                        }
                      ]
                    }
                  },
                  {
                    "name": "XYZ",
                    "code": "PRJ987",
                    "jobs": {
                      "job": [
                        {
                          "titles": {
                            "title": [
                              {
                                "name": "Programmer",
                                "type": "Functional"
                              },
                              {
                                "name": "Vice President",
                                "type": "Corporate"
                              }
                            ]
                          },
                          "experience": {
                            "unit": "Years",
                            "min": "15",
                            "max": "20"
                          },
                          "location": {
                            "country": "India",
                            "state": "Maharashtra",
                            "city": "Mumbai",
                            "pin": "400076"
                          },
                          "skills": {
                            "skill": [
                              {
                                "mandatory": "Yes",
                                "type": "Technology",
                                "name": "C++",
                                "current": "Yes",
                                "expertise": "Expert"
                              },
                              {
                                "mandatory": "No",
                                "type": "Technology",
                                "name": "Javascript",
                                "current": "No",
                                "expertise": "Beginner"
                              },
                              {
                                "mandatory": "Yes",
                                "type": "Technology",
                                "name": "Java",
                                "current": "Yes",
                                "expertise": "Intermediate"
                              },
                              {
                                "mandatory": "Yes",
                                "type": "Domain",
                                "name": "Interest Rate Derivatives",
                                "current": "Yes",
                                "expertise": "Intermediate"
                              },
                              {
                                "mandatory": "Yes",
                                "type": "Softskill",
                                "name": "Stakeholder Management",
                                "current": "Yes",
                                "expertise": "Intermediate"
                              }
                            ]
                          }
                        },
                        {
                          "titles": {
                            "title": [
                              {
                                "name": "Programmer",
                                "type": "Functional"
                              },
                              {
                                "name": "Vice President",
                                "type": "Corporate"
                              }
                            ]
                          },
                          "experience": {
                            "unit": "Years",
                            "min": "15",
                            "max": "20"
                          },
                          "location": {
                            "country": "India",
                            "state": "Maharashtra",
                            "city": "Mumbai",
                            "pin": "400076"
                          },
                          "skills": {
                            "skill": [
                              {
                                "mandatory": "Yes",
                                "type": "Technology",
                                "name": "C++",
                                "current": "Yes",
                                "expertise": "Expert"
                              },
                              {
                                "mandatory": "No",
                                "type": "Technology",
                                "name": "Javascript",
                                "current": "No",
                                "expertise": "Beginner"
                              },
                              {
                                "mandatory": "Yes",
                                "type": "Technology",
                                "name": "Java",
                                "current": "Yes",
                                "expertise": "Intermediate"
                              },
                              {
                                "mandatory": "Yes",
                                "type": "Domain",
                                "name": "Interest Rate Derivatives",
                                "current": "Yes",
                                "expertise": "Intermediate"
                              },
                              {
                                "mandatory": "Yes",
                                "type": "Softskill",
                                "name": "Stakeholder Management",
                                "current": "Yes",
                                "expertise": "Intermediate"
                              }
                            ]
                          }
                        }
                      ]
                    }
                  }
                ]
              }
            }
          ]
        },
        {
          "name": "Market Risk Management",
          "code": "RMM1234",
          "sbunits": [
            {
              "name": "Research",
              "code": "GM0945",
              "projects": [
                {
                  "name": "XYZ",
                  "code": "PRJ987",
                  "jobs": [
                    {
                      "titles": {
                        "title": [
                          {
                            "name": "Programmer",
                            "type": "Functional"
                          },
                          {
                            "name": "Vice President",
                            "type": "Corporate"
                          }
                        ]
                      },
                      "experience": {
                        "unit": "Years",
                        "min": "15",
                        "max": "20"
                      },
                      "location": {
                        "country": "India",
                        "state": "Maharashtra",
                        "city": "Mumbai",
                        "pin": "400076"
                      },
                      "skills": [
                        {
                          "mandatory": "Yes",
                          "type": "Technology",
                          "name": "C++",
                          "current": "Yes",
                          "expertise": "Expert"
                        },
                        {
                          "mandatory": "No",
                          "type": "Technology",
                          "name": "Javascript",
                          "current": "No",
                          "expertise": "Beginner"
                        },
                        {
                          "mandatory": "Yes",
                          "type": "Technology",
                          "name": "Java",
                          "current": "Yes",
                          "expertise": "Intermediate"
                        },
                        {
                          "mandatory": "Yes",
                          "type": "Domain",
                          "name": "Interest Rate Derivatives",
                          "current": "Yes",
                          "expertise": "Intermediate"
                        },
                        {
                          "mandatory": "Yes",
                          "type": "Softskill",
                          "name": "Stakeholder Management",
                          "current": "Yes",
                          "expertise": "Intermediate"
                        }
                      ]
                    },
                    {
                      "titles": {
                        "title": [
                          {
                            "name": "Programmer",
                            "type": "Functional"
                          },
                          {
                            "name": "Vice President",
                            "type": "Corporate"
                          }
                        ]
                      },
                      "experience": {
                        "unit": "Years",
                        "min": "15",
                        "max": "20"
                      },
                      "location": {
                        "country": "India",
                        "state": "Maharashtra",
                        "city": "Mumbai",
                        "pin": "400076"
                      },
                      "skills": [
                        {
                          "mandatory": "Yes",
                          "type": "Technology",
                          "name": "C++",
                          "current": "Yes",
                          "expertise": "Expert"
                        },
                        {
                          "mandatory": "No",
                          "type": "Technology",
                          "name": "Javascript",
                          "current": "No",
                          "expertise": "Beginner"
                        },
                        {
                          "mandatory": "Yes",
                          "type": "Technology",
                          "name": "Java",
                          "current": "Yes",
                          "expertise": "Intermediate"
                        },
                        {
                          "mandatory": "Yes",
                          "type": "Domain",
                          "name": "Interest Rate Derivatives",
                          "current": "Yes",
                          "expertise": "Intermediate"
                        },
                        {
                          "mandatory": "Yes",
                          "type": "Softskill",
                          "name": "Stakeholder Management",
                          "current": "Yes",
                          "expertise": "Intermediate"
                        }
                      ]
                    }
                  ]
                },
                {
                  "name": "XYZ",
                  "code": "PRJ987",
                  "jobs": [
                    {
                      "titles": {
                        "title": [
                          {
                            "name": "Programmer",
                            "type": "Functional"
                          },
                          {
                            "name": "Vice President",
                            "type": "Corporate"
                          }
                        ]
                      },
                      "experience": {
                        "unit": "Years",
                        "min": "15",
                        "max": "20"
                      },
                      "location": {
                        "country": "India",
                        "state": "Maharashtra",
                        "city": "Mumbai",
                        "pin": "400076"
                      },
                      "skills": [
                        {
                          "mandatory": "Yes",
                          "type": "Technology",
                          "name": "C++",
                          "current": "Yes",
                          "expertise": "Expert"
                        },
                        {
                          "mandatory": "No",
                          "type": "Technology",
                          "name": "Javascript",
                          "current": "No",
                          "expertise": "Beginner"
                        },
                        {
                          "mandatory": "Yes",
                          "type": "Technology",
                          "name": "Java",
                          "current": "Yes",
                          "expertise": "Intermediate"
                        },
                        {
                          "mandatory": "Yes",
                          "type": "Domain",
                          "name": "Interest Rate Derivatives",
                          "current": "Yes",
                          "expertise": "Intermediate"
                        },
                        {
                          "mandatory": "Yes",
                          "type": "Softskill",
                          "name": "Stakeholder Management",
                          "current": "Yes",
                          "expertise": "Intermediate"
                        }
                      ]
                    },
                    {
                      "titles": {
                        "title": [
                          {
                            "name": "Programmer",
                            "type": "Functional"
                          },
                          {
                            "name": "Vice President",
                            "type": "Corporate"
                          }
                        ]
                      },
                      "experience": {
                        "unit": "Years",
                        "min": "15",
                        "max": "20"
                      },
                      "location": {
                        "country": "India",
                        "state": "Maharashtra",
                        "city": "Mumbai",
                        "pin": "400076"
                      },
                      "skills": [
                        {
                          "mandatory": "Yes",
                          "type": "Technology",
                          "name": "C++",
                          "current": "Yes",
                          "expertise": "Expert"
                        },
                        {
                          "mandatory": "No",
                          "type": "Technology",
                          "name": "Javascript",
                          "current": "No",
                          "expertise": "Beginner"
                        },
                        {
                          "mandatory": "Yes",
                          "type": "Technology",
                          "name": "Java",
                          "current": "Yes",
                          "expertise": "Intermediate"
                        },
                        {
                          "mandatory": "Yes",
                          "type": "Domain",
                          "name": "Interest Rate Derivatives",
                          "current": "Yes",
                          "expertise": "Intermediate"
                        },
                        {
                          "mandatory": "Yes",
                          "type": "Softskill",
                          "name": "Stakeholder Management",
                          "current": "Yes",
                          "expertise": "Intermediate"
                        }
                      ]
                    }
                  ]
                }
              ]
            },
            {
              "name": "Research",
              "code": "GM0945",
              "projects": {
                "project": [
                  {
                    "name": "XYZ",
                    "code": "PRJ987",
                    "jobs": {
                      "job": [
                        {
                          "titles": {
                            "title": [
                              {
                                "name": "Programmer",
                                "type": "Functional"
                              },
                              {
                                "name": "Vice President",
                                "type": "Corporate"
                              }
                            ]
                          },
                          "experience": {
                            "unit": "Years",
                            "min": "15",
                            "max": "20"
                          },
                          "location": {
                            "country": "India",
                            "state": "Maharashtra",
                            "city": "Mumbai",
                            "pin": "400076"
                          },
                          "skills": {
                            "skill": [
                              {
                                "mandatory": "Yes",
                                "type": "Technology",
                                "name": "C++",
                                "current": "Yes",
                                "expertise": "Expert"
                              },
                              {
                                "mandatory": "No",
                                "type": "Technology",
                                "name": "Javascript",
                                "current": "No",
                                "expertise": "Beginner"
                              },
                              {
                                "mandatory": "Yes",
                                "type": "Technology",
                                "name": "Java",
                                "current": "Yes",
                                "expertise": "Intermediate"
                              },
                              {
                                "mandatory": "Yes",
                                "type": "Domain",
                                "name": "Interest Rate Derivatives",
                                "current": "Yes",
                                "expertise": "Intermediate"
                              },
                              {
                                "mandatory": "Yes",
                                "type": "Softskill",
                                "name": "Stakeholder Management",
                                "current": "Yes",
                                "expertise": "Intermediate"
                              }
                            ]
                          }
                        },
                        {
                          "titles": {
                            "title": [
                              {
                                "name": "Programmer",
                                "type": "Functional"
                              },
                              {
                                "name": "Vice President",
                                "type": "Corporate"
                              }
                            ]
                          },
                          "experience": {
                            "unit": "Years",
                            "min": "15",
                            "max": "20"
                          },
                          "location": {
                            "country": "India",
                            "state": "Maharashtra",
                            "city": "Mumbai",
                            "pin": "400076"
                          },
                          "skills": {
                            "skill": [
                              {
                                "mandatory": "Yes",
                                "type": "Technology",
                                "name": "C++",
                                "current": "Yes",
                                "expertise": "Expert"
                              },
                              {
                                "mandatory": "No",
                                "type": "Technology",
                                "name": "Javascript",
                                "current": "No",
                                "expertise": "Beginner"
                              },
                              {
                                "mandatory": "Yes",
                                "type": "Technology",
                                "name": "Java",
                                "current": "Yes",
                                "expertise": "Intermediate"
                              },
                              {
                                "mandatory": "Yes",
                                "type": "Domain",
                                "name": "Interest Rate Derivatives",
                                "current": "Yes",
                                "expertise": "Intermediate"
                              },
                              {
                                "mandatory": "Yes",
                                "type": "Softskill",
                                "name": "Stakeholder Management",
                                "current": "Yes",
                                "expertise": "Intermediate"
                              }
                            ]
                          }
                        }
                      ]
                    }
                  },
                  {
                    "name": "XYZ",
                    "code": "PRJ987",
                    "jobs": {
                      "job": [
                        {
                          "titles": {
                            "title": [
                              {
                                "name": "Programmer",
                                "type": "Functional"
                              },
                              {
                                "name": "Vice President",
                                "type": "Corporate"
                              }
                            ]
                          },
                          "experience": {
                            "unit": "Years",
                            "min": "15",
                            "max": "20"
                          },
                          "location": {
                            "country": "India",
                            "state": "Maharashtra",
                            "city": "Mumbai",
                            "pin": "400076"
                          },
                          "skills": {
                            "skill": [
                              {
                                "mandatory": "Yes",
                                "type": "Technology",
                                "name": "C++",
                                "current": "Yes",
                                "expertise": "Expert"
                              },
                              {
                                "mandatory": "No",
                                "type": "Technology",
                                "name": "Javascript",
                                "current": "No",
                                "expertise": "Beginner"
                              },
                              {
                                "mandatory": "Yes",
                                "type": "Technology",
                                "name": "Java",
                                "current": "Yes",
                                "expertise": "Intermediate"
                              },
                              {
                                "mandatory": "Yes",
                                "type": "Domain",
                                "name": "Interest Rate Derivatives",
                                "current": "Yes",
                                "expertise": "Intermediate"
                              },
                              {
                                "mandatory": "Yes",
                                "type": "Softskill",
                                "name": "Stakeholder Management",
                                "current": "Yes",
                                "expertise": "Intermediate"
                              }
                            ]
                          }
                        },
                        {
                          "titles": {
                            "title": [
                              {
                                "name": "Programmer",
                                "type": "Functional"
                              },
                              {
                                "name": "Vice President",
                                "type": "Corporate"
                              }
                            ]
                          },
                          "experience": {
                            "unit": "Years",
                            "min": "15",
                            "max": "20"
                          },
                          "location": {
                            "country": "India",
                            "state": "Maharashtra",
                            "city": "Mumbai",
                            "pin": "400076"
                          },
                          "skills": {
                            "skill": [
                              {
                                "mandatory": "Yes",
                                "type": "Technology",
                                "name": "C++",
                                "current": "Yes",
                                "expertise": "Expert"
                              },
                              {
                                "mandatory": "No",
                                "type": "Technology",
                                "name": "Javascript",
                                "current": "No",
                                "expertise": "Beginner"
                              },
                              {
                                "mandatory": "Yes",
                                "type": "Technology",
                                "name": "Java",
                                "current": "Yes",
                                "expertise": "Intermediate"
                              },
                              {
                                "mandatory": "Yes",
                                "type": "Domain",
                                "name": "Interest Rate Derivatives",
                                "current": "Yes",
                                "expertise": "Intermediate"
                              },
                              {
                                "mandatory": "Yes",
                                "type": "Softskill",
                                "name": "Stakeholder Management",
                                "current": "Yes",
                                "expertise": "Intermediate"
                              }
                            ]
                          }
                        }
                      ]
                    }
                  }
                ]
              }
            }
          ]
        }
      ]
    }
  ]
}